[Tue Nov 21 22:11:55 2017]	Graph Id=1117502071820 of order 7

	Trivial automorphism group

[Tue Nov 21 22:11:55 2017]	Reducing 126 states to ... 126. Finished at [Tue Nov 21 22:11:55 2017]
[Tue Nov 21 22:11:55 2017]	Computing symbolic transition matrix ... Done!
[Tue Nov 21 22:11:55 2017]	Well, initial degree guess is 126, like the of states.
[Wed Nov 22 08:36:24 2017]	Solution found with degree 126. Saving to file '1117502071820.txt' and '1117502071820.sage' 
