[Wed Nov 22 16:10:18 2017]	Graph Id=1117638381600 of order 7

	Automorphism Group elements:
		( 0 1 3 2 4 5 6 )

[Wed Nov 22 16:10:18 2017]	Reducing 126 states to ... 94. Finished at [Wed Nov 22 16:10:18 2017]
[Wed Nov 22 16:10:18 2017]	Computing symbolic transition matrix ... Done!
[Wed Nov 22 16:10:18 2017]	Well, initial degree guess is 94, like the of states.
[Wed Nov 22 18:30:59 2017]	Solution found with degree 94. Saving to file '1117638381600.txt' and '1117638381600.sage' 
