[Thu Nov 23 00:59:07 2017]	Graph Id=1134818766880 of order 7

	Automorphism Group elements:
		( 0 1 3 2 4 5 6 )
		( 0 1 2 3 5 4 6 )
		( 0 1 3 2 5 4 6 )

[Thu Nov 23 00:59:07 2017]	Reducing 126 states to ... 70. Finished at [Thu Nov 23 00:59:07 2017]
[Thu Nov 23 00:59:07 2017]	Computing symbolic transition matrix ... Done!
[Thu Nov 23 00:59:07 2017]	Well, initial degree guess is 70, like the of states.
[Thu Nov 23 01:15:59 2017]	Solution found with degree 70. Saving to file '1134818766880.txt' and '1134818766880.sage' 
