[Thu Nov 23 00:40:21 2017]	Graph Id=1134548246544 of order 7

	Automorphism Group elements:
		( 0 1 3 2 4 5 6 )
		( 0 1 2 4 3 5 6 )
		( 0 1 4 2 3 5 6 )
		( 0 1 3 4 2 5 6 )
		( 0 1 4 3 2 5 6 )

[Thu Nov 23 00:40:21 2017]	Reducing 126 states to ... 62. Finished at [Thu Nov 23 00:40:21 2017]
[Thu Nov 23 00:40:21 2017]	Computing symbolic transition matrix ... Done!
[Thu Nov 23 00:40:21 2017]	Well, initial degree guess is 62, like the of states.
[Thu Nov 23 00:48:57 2017]	Solution found with degree 62. Saving to file '1134548246544.txt' and '1134548246544.sage' 
