[Wed Nov 22 10:43:38 2017]	Graph Id=1134281908236 of order 7

	Automorphism Group elements:
		( 1 0 2 5 6 3 4 )
		( 0 1 2 4 3 6 5 )
		( 1 0 2 6 5 4 3 )

[Wed Nov 22 10:43:38 2017]	Reducing 126 states to ... 46. Finished at [Wed Nov 22 10:43:38 2017]
[Wed Nov 22 10:43:38 2017]	Computing symbolic transition matrix ... Done!
[Wed Nov 22 10:43:38 2017]	Well, initial degree guess is 46, like the of states.
[Wed Nov 22 10:44:28 2017]	Solution found with degree 46. Saving to file '1134281908236.txt' and '1134281908236.sage' 
