[Thu Nov 23 01:43:37 2017]	Graph Id=1134548756488 of order 7

	Trivial automorphism group

[Thu Nov 23 01:43:37 2017]	Reducing 126 states to ... 126. Finished at [Thu Nov 23 01:43:37 2017]
[Thu Nov 23 01:43:37 2017]	Computing symbolic transition matrix ... Done!
[Thu Nov 23 01:43:37 2017]	Well, initial degree guess is 126, like the of states.
[Thu Nov 23 08:43:49 2017]	Solution found with degree 126. Saving to file '1134548756488.txt' and '1134548756488.sage' 
