[Thu Nov 16 17:32:58 2017]	Graph Id=1151592841249 of order 7

	Automorphism Group elements:
		( 0 1 3 2 4 5 6 )
		( 1 0 2 3 4 5 6 )
		( 0 1 2 3 5 4 6 )
		( 2 3 0 1 4 5 6 )
		( 0 1 4 5 2 3 6 )
		( 2 3 0 1 5 4 6 )
		( 0 1 5 4 2 3 6 )
		( 1 0 2 3 5 4 6 )
		( 0 1 3 2 5 4 6 )
		( 0 1 4 5 3 2 6 )
		( 1 0 4 5 2 3 6 )
		( 4 5 0 1 2 3 6 )
		( 2 3 4 5 0 1 6 )
		( 2 3 1 0 4 5 6 )
		( 1 0 3 2 4 5 6 )
		( 3 2 0 1 4 5 6 )
		( 5 4 0 1 2 3 6 )
		( 3 2 1 0 4 5 6 )
		( 4 5 0 1 3 2 6 )
		( 2 3 1 0 5 4 6 )
		( 3 2 0 1 5 4 6 )
		( 2 3 4 5 1 0 6 )
		( 3 2 4 5 0 1 6 )
		( 4 5 2 3 0 1 6 )
		( 1 0 3 2 5 4 6 )
		( 2 3 5 4 0 1 6 )
		( 1 0 5 4 2 3 6 )
		( 4 5 1 0 2 3 6 )
		( 0 1 5 4 3 2 6 )
		( 1 0 4 5 3 2 6 )
		( 3 2 5 4 0 1 6 )
		( 4 5 3 2 0 1 6 )
		( 5 4 0 1 3 2 6 )
		( 4 5 2 3 1 0 6 )
		( 3 2 1 0 5 4 6 )
		( 5 4 1 0 2 3 6 )
		( 1 0 5 4 3 2 6 )
		( 2 3 5 4 1 0 6 )
		( 4 5 1 0 3 2 6 )
		( 5 4 2 3 0 1 6 )
		( 3 2 4 5 1 0 6 )
		( 5 4 1 0 3 2 6 )
		( 3 2 5 4 1 0 6 )
		( 4 5 3 2 1 0 6 )
		( 5 4 3 2 0 1 6 )
		( 5 4 2 3 1 0 6 )
		( 5 4 3 2 1 0 6 )

[Thu Nov 16 17:32:58 2017]	Reducing 126 states to ... 18. Finished at [Thu Nov 16 17:32:58 2017]
[Thu Nov 16 17:32:58 2017]	Computing symbolic transition matrix ... Done!
[Thu Nov 16 17:32:58 2017]	Well, initial degree guess is 18, like the of states.
[Thu Nov 16 17:32:58 2017]	Solution found with degree 18. Saving to file '1151592841249.txt' and '1151592841249.sage' 
