[Wed Nov 22 10:02:05 2017]	Graph Id=1151862333481 of order 7

	Automorphism Group elements:
		( 1 0 3 2 5 4 6 )
		( 2 3 0 1 4 5 6 )
		( 3 2 1 0 5 4 6 )

[Wed Nov 22 10:02:05 2017]	Reducing 126 states to ... 46. Finished at [Wed Nov 22 10:02:05 2017]
[Wed Nov 22 10:02:05 2017]	Computing symbolic transition matrix ... Done!
[Wed Nov 22 10:02:05 2017]	Well, initial degree guess is 46, like the of states.
[Wed Nov 22 10:03:20 2017]	Solution found with degree 46. Saving to file '1151862333481.txt' and '1151862333481.sage' 
