[Tue Nov 21 19:39:18 2017]	Graph Id=1151860233268 of order 7

	Trivial automorphism group

[Tue Nov 21 19:39:18 2017]	Reducing 126 states to ... 126. Finished at [Tue Nov 21 19:39:18 2017]
[Tue Nov 21 19:39:18 2017]	Computing symbolic transition matrix ... Done!
[Tue Nov 21 19:39:19 2017]	Well, initial degree guess is 126, like the of states.
[Wed Nov 22 10:36:58 2017]	Solution found with degree 126. Saving to file '1151860233268.txt' and '1151860233268.sage' 
