[Wed Nov 22 08:58:03 2017]	Graph Id=1151998654523 of order 7

	Automorphism Group elements:
		( 0 1 2 3 5 4 6 )
		( 0 1 2 3 4 6 5 )
		( 1 0 3 2 4 5 6 )
		( 0 2 1 3 4 5 6 )
		( 0 1 2 3 5 6 4 )
		( 0 1 2 3 6 4 5 )
		( 0 2 1 3 5 4 6 )
		( 1 0 3 2 4 6 5 )
		( 1 0 3 2 5 4 6 )
		( 2 0 3 1 4 5 6 )
		( 0 2 1 3 4 6 5 )
		( 1 3 0 2 4 5 6 )
		( 1 0 3 2 6 4 5 )
		( 1 3 0 2 4 6 5 )
		( 2 3 0 1 4 5 6 )
		( 0 1 2 3 6 5 4 )
		( 1 3 0 2 5 4 6 )
		( 3 1 2 0 4 5 6 )
		( 2 0 3 1 5 4 6 )
		( 0 2 1 3 5 6 4 )
		( 1 0 3 2 5 6 4 )
		( 2 0 3 1 4 6 5 )
		( 0 2 1 3 6 4 5 )
		( 2 3 0 1 5 4 6 )
		( 3 2 1 0 4 5 6 )
		( 3 1 2 0 5 4 6 )
		( 2 0 3 1 6 4 5 )
		( 2 0 3 1 5 6 4 )
		( 0 2 1 3 6 5 4 )
		( 1 0 3 2 6 5 4 )
		( 1 3 0 2 6 4 5 )
		( 3 1 2 0 4 6 5 )
		( 2 3 0 1 4 6 5 )
		( 1 3 0 2 5 6 4 )
		( 2 3 0 1 5 6 4 )
		( 1 3 0 2 6 5 4 )
		( 3 2 1 0 5 4 6 )
		( 2 3 0 1 6 4 5 )
		( 3 2 1 0 4 6 5 )
		( 3 1 2 0 5 6 4 )
		( 2 0 3 1 6 5 4 )
		( 3 1 2 0 6 4 5 )
		( 3 2 1 0 5 6 4 )
		( 3 1 2 0 6 5 4 )
		( 2 3 0 1 6 5 4 )
		( 3 2 1 0 6 4 5 )
		( 3 2 1 0 6 5 4 )

[Wed Nov 22 08:58:03 2017]	Reducing 126 states to ... 22. Finished at [Wed Nov 22 08:58:03 2017]
[Wed Nov 22 08:58:03 2017]	Computing symbolic transition matrix ... Done!
[Wed Nov 22 08:58:03 2017]	Well, initial degree guess is 22, like the of states.
[Wed Nov 22 08:58:04 2017]	Solution found with degree 22. Saving to file '1151998654523.txt' and '1151998654523.sage' 
