[Wed Nov 22 08:24:43 2017]	Graph Id=1151998128180 of order 7

	Automorphism Group elements:
		( 0 2 1 3 4 5 6 )
		( 0 1 2 3 4 6 5 )
		( 0 2 1 3 4 6 5 )

[Wed Nov 22 08:24:43 2017]	Reducing 126 states to ... 70. Finished at [Wed Nov 22 08:24:43 2017]
[Wed Nov 22 08:24:43 2017]	Computing symbolic transition matrix ... Done!
[Wed Nov 22 08:24:43 2017]	Well, initial degree guess is 70, like the of states.
[Wed Nov 22 08:48:38 2017]	Solution found with degree 70. Saving to file '1151998128180.txt' and '1151998128180.sage' 
