[Fri Nov 17 15:17:00 2017]	Graph Id=1151592837127 of order 7

	Automorphism Group elements:
		( 1 0 4 5 2 3 6 )
		( 0 1 3 2 4 5 6 )
		( 0 1 2 3 5 4 6 )
		( 0 1 3 2 5 4 6 )
		( 1 0 4 5 3 2 6 )
		( 1 0 5 4 2 3 6 )
		( 1 0 5 4 3 2 6 )

[Fri Nov 17 15:17:00 2017]	Reducing 126 states to ... 40. Finished at [Fri Nov 17 15:17:00 2017]
[Fri Nov 17 15:17:00 2017]	Computing symbolic transition matrix ... Done!
[Fri Nov 17 15:17:00 2017]	Well, initial degree guess is 40, like the of states.
[Fri Nov 17 15:17:46 2017]	Solution found with degree 40. Saving to file '1151592837127.txt' and '1151592837127.sage' 
