[Tue Nov 21 19:39:18 2017]	Graph Id=1151862853638 of order 7

	Automorphism Group elements:
		( 0 1 3 2 4 5 6 )

[Tue Nov 21 19:39:18 2017]	Reducing 126 states to ... 94. Finished at [Tue Nov 21 19:39:18 2017]
[Tue Nov 21 19:39:18 2017]	Computing symbolic transition matrix ... Done!
[Tue Nov 21 19:39:19 2017]	Well, initial degree guess is 94, like the of states.
[Tue Nov 21 21:57:40 2017]	Solution found with degree 94. Saving to file '1151862853638.txt' and '1151862853638.sage' 
