[Wed Nov 22 09:06:54 2017]	Graph Id=1151592835083 of order 7

	Automorphism Group elements:
		( 1 0 3 2 5 4 6 )
		( 0 1 4 5 2 3 6 )
		( 1 0 5 4 3 2 6 )

[Wed Nov 22 09:06:54 2017]	Reducing 126 states to ... 46. Finished at [Wed Nov 22 09:06:54 2017]
[Wed Nov 22 09:06:54 2017]	Computing symbolic transition matrix ... Done!
[Wed Nov 22 09:06:54 2017]	Well, initial degree guess is 46, like the of states.
[Wed Nov 22 09:07:57 2017]	Reducing degree by 1
[Wed Nov 22 09:08:54 2017]	Reducing degree by 1
[Wed Nov 22 09:09:46 2017]	Solution found with degree 44. Saving to file '1151592835083.txt' and '1151592835083.sage' 
