[Thu Nov 23 03:41:46 2017]	Graph Id=1151461247012 of order 7

	Automorphism Group elements:
		( 1 0 2 3 4 5 6 )
		( 0 1 2 3 5 4 6 )
		( 1 0 2 3 5 4 6 )

[Thu Nov 23 03:41:46 2017]	Reducing 126 states to ... 70. Finished at [Thu Nov 23 03:41:46 2017]
[Thu Nov 23 03:41:46 2017]	Computing symbolic transition matrix ... Done!
[Thu Nov 23 03:41:46 2017]	Well, initial degree guess is 70, like the of states.
[Thu Nov 23 04:03:35 2017]	Solution found with degree 70. Saving to file '1151461247012.txt' and '1151461247012.sage' 
