[Wed Nov 22 01:02:13 2017]	Graph Id=1151998654498 of order 7

	Automorphism Group elements:
		( 0 1 2 4 3 5 6 )
		( 0 1 2 3 5 4 6 )
		( 0 1 2 4 5 3 6 )
		( 0 1 2 5 3 4 6 )
		( 0 1 2 5 4 3 6 )

[Wed Nov 22 01:02:13 2017]	Reducing 126 states to ... 62. Finished at [Wed Nov 22 01:02:13 2017]
[Wed Nov 22 01:02:13 2017]	Computing symbolic transition matrix ... Done!
[Wed Nov 22 01:02:13 2017]	Well, initial degree guess is 62, like the of states.
[Wed Nov 22 01:13:15 2017]	Solution found with degree 62. Saving to file '1151998654498.txt' and '1151998654498.sage' 
