[Wed Nov 22 10:54:47 2017]	Graph Id=1151996012592 of order 7

	Automorphism Group elements:
		( 0 2 1 4 3 6 5 )

[Wed Nov 22 10:54:47 2017]	Reducing 126 states to ... 70. Finished at [Wed Nov 22 10:54:47 2017]
[Wed Nov 22 10:54:47 2017]	Computing symbolic transition matrix ... Done!
[Wed Nov 22 10:54:47 2017]	Well, initial degree guess is 70, like the of states.
[Wed Nov 22 11:13:01 2017]	Solution found with degree 70. Saving to file '1151996012592.txt' and '1151996012592.sage' 
