[Thu Nov 16 17:22:50 2017]	Graph Id=17450410000 of order 6

	Automorphism Group elements:
		( 1 0 2 3 4 5 )
		( 0 1 2 4 3 5 )
		( 0 2 1 3 4 5 )
		( 0 1 3 2 4 5 )
		( 1 0 2 4 3 5 )
		( 0 1 4 2 3 5 )
		( 1 0 3 2 4 5 )
		( 0 3 1 2 4 5 )
		( 2 0 1 3 4 5 )
		( 0 1 3 4 2 5 )
		( 0 2 3 1 4 5 )
		( 1 2 0 3 4 5 )
		( 0 2 1 4 3 5 )
		( 1 0 4 2 3 5 )
		( 0 3 1 4 2 5 )
		( 2 1 0 3 4 5 )
		( 2 0 3 1 4 5 )
		( 2 0 1 4 3 5 )
		( 0 2 4 1 3 5 )
		( 1 2 3 0 4 5 )
		( 0 3 2 1 4 5 )
		( 1 3 0 2 4 5 )
		( 3 0 1 2 4 5 )
		( 0 4 1 2 3 5 )
		( 1 2 0 4 3 5 )
		( 1 0 3 4 2 5 )
		( 0 1 4 3 2 5 )
		( 0 2 3 4 1 5 )
		( 1 3 0 4 2 5 )
		( 3 0 2 1 4 5 )
		( 0 2 4 3 1 5 )
		( 3 1 0 2 4 5 )
		( 3 0 1 4 2 5 )
		( 1 0 4 3 2 5 )
		( 0 3 4 1 2 5 )
		( 2 1 3 0 4 5 )
		( 2 0 4 1 3 5 )
		( 2 0 3 4 1 5 )
		( 1 2 4 0 3 5 )
		( 1 3 2 0 4 5 )
		( 0 4 1 3 2 5 )
		( 2 3 0 1 4 5 )
		( 0 4 2 1 3 5 )
		( 4 0 1 2 3 5 )
		( 1 2 3 4 0 5 )
		( 1 4 0 2 3 5 )
		( 0 3 2 4 1 5 )
		( 2 1 0 4 3 5 )
		( 4 0 1 3 2 5 )
		( 3 0 4 1 2 5 )
		( 2 1 4 0 3 5 )
		( 0 3 4 2 1 5 )
		( 3 1 0 4 2 5 )
		( 0 4 2 3 1 5 )
		( 4 0 2 1 3 5 )
		( 3 0 2 4 1 5 )
		( 1 3 2 4 0 5 )
		( 3 2 0 1 4 5 )
		( 2 1 3 4 0 5 )
		( 1 4 2 0 3 5 )
		( 3 1 2 0 4 5 )
		( 4 1 0 2 3 5 )
		( 1 2 4 3 0 5 )
		( 1 4 0 3 2 5 )
		( 2 3 1 0 4 5 )
		( 0 4 3 1 2 5 )
		( 1 3 4 0 2 5 )
		( 2 4 0 1 3 5 )
		( 2 0 4 3 1 5 )
		( 2 3 0 4 1 5 )
		( 4 1 2 0 3 5 )
		( 3 1 2 4 0 5 )
		( 4 0 2 3 1 5 )
		( 3 4 0 1 2 5 )
		( 0 4 3 2 1 5 )
		( 4 0 3 1 2 5 )
		( 1 4 3 0 2 5 )
		( 2 3 1 4 0 5 )
		( 3 0 4 2 1 5 )
		( 2 3 4 0 1 5 )
		( 3 1 4 0 2 5 )
		( 2 4 0 3 1 5 )
		( 4 1 0 3 2 5 )
		( 3 2 1 0 4 5 )
		( 3 2 0 4 1 5 )
		( 1 4 2 3 0 5 )
		( 2 4 1 0 3 5 )
		( 2 1 4 3 0 5 )
		( 4 2 0 1 3 5 )
		( 1 3 4 2 0 5 )
		( 3 2 4 0 1 5 )
		( 3 4 0 2 1 5 )
		( 4 3 0 1 2 5 )
		( 2 4 1 3 0 5 )
		( 3 2 1 4 0 5 )
		( 3 1 4 2 0 5 )
		( 2 3 4 1 0 5 )
		( 2 4 3 0 1 5 )
		( 3 4 1 0 2 5 )
		( 4 2 1 0 3 5 )
		( 4 0 3 2 1 5 )
		( 4 1 2 3 0 5 )
		( 4 1 3 0 2 5 )
		( 4 2 0 3 1 5 )
		( 1 4 3 2 0 5 )
		( 3 4 2 0 1 5 )
		( 4 2 1 3 0 5 )
		( 4 3 0 2 1 5 )
		( 3 4 1 2 0 5 )
		( 3 2 4 1 0 5 )
		( 4 1 3 2 0 5 )
		( 4 3 1 0 2 5 )
		( 2 4 3 1 0 5 )
		( 4 2 3 0 1 5 )
		( 4 3 2 0 1 5 )
		( 4 2 3 1 0 5 )
		( 4 3 1 2 0 5 )
		( 3 4 2 1 0 5 )
		( 4 3 2 1 0 5 )

[Thu Nov 16 17:22:50 2017]	Reducing 62 states to ... 10. Finished at [Thu Nov 16 17:22:50 2017]
[Thu Nov 16 17:22:50 2017]	Computing symbolic transition matrix ... Done!
[Thu Nov 16 17:22:50 2017]	Well, initial degree guess is 10, like the of states.
[Thu Nov 16 17:22:50 2017]	Reducing degree by 1
[Thu Nov 16 17:22:50 2017]	Solution found with degree 9. Saving to file '17450410000.txt' and '17450410000.sage' 
