[Thu Nov 16 17:25:28 2017]	Graph Id=17451990044 of order 6

	Automorphism Group elements:
		( 0 1 2 4 3 5 )
		( 0 2 1 3 4 5 )
		( 0 2 1 4 3 5 )

[Thu Nov 16 17:25:28 2017]	Reducing 62 states to ... 34. Finished at [Thu Nov 16 17:25:28 2017]
[Thu Nov 16 17:25:28 2017]	Computing symbolic transition matrix ... Done!
[Thu Nov 16 17:25:28 2017]	Well, initial degree guess is 34, like the of states.
[Thu Nov 16 17:25:53 2017]	Solution found with degree 34. Saving to file '17451990044.txt' and '17451990044.sage' 
