[Thu Nov 16 17:23:10 2017]	Graph Id=17584623620 of order 6

	Automorphism Group elements:
		( 0 2 1 3 5 4 )
		( 1 0 2 4 3 5 )
		( 2 0 1 5 3 4 )
		( 1 2 0 4 5 3 )
		( 2 1 0 5 4 3 )

[Thu Nov 16 17:23:10 2017]	Reducing 62 states to ... 18. Finished at [Thu Nov 16 17:23:10 2017]
[Thu Nov 16 17:23:10 2017]	Computing symbolic transition matrix ... Done!
[Thu Nov 16 17:23:10 2017]	Well, initial degree guess is 18, like the of states.
[Thu Nov 16 17:23:10 2017]	Solution found with degree 18. Saving to file '17584623620.txt' and '17584623620.sage' 
