[Thu Nov 16 17:22:50 2017]	Graph Id=17584627720 of order 6

	Automorphism Group elements:
		( 0 2 1 3 4 5 )

[Thu Nov 16 17:22:50 2017]	Reducing 62 states to ... 46. Finished at [Thu Nov 16 17:22:50 2017]
[Thu Nov 16 17:22:50 2017]	Computing symbolic transition matrix ... Done!
[Thu Nov 16 17:22:50 2017]	Well, initial degree guess is 46, like the of states.
[Thu Nov 16 17:24:25 2017]	Solution found with degree 46. Saving to file '17584627720.txt' and '17584627720.sage' 
