[Thu Nov 16 17:22:53 2017]	Graph Id=17584625666 of order 6

	Automorphism Group elements:
		( 0 1 2 4 3 5 )

[Thu Nov 16 17:22:53 2017]	Reducing 62 states to ... 46. Finished at [Thu Nov 16 17:22:53 2017]
[Thu Nov 16 17:22:53 2017]	Computing symbolic transition matrix ... Done!
[Thu Nov 16 17:22:53 2017]	Well, initial degree guess is 46, like the of states.
[Thu Nov 16 17:24:12 2017]	Solution found with degree 46. Saving to file '17584625666.txt' and '17584625666.sage' 
