[Tue Nov 21 19:39:18 2017]	Graph Id=34765556784 of order 7

	Automorphism Group elements:
		( 0 2 1 4 3 6 5 )
		( 0 4 2 3 1 5 6 )
		( 0 1 3 2 4 5 6 )
		( 0 3 1 4 2 6 5 )
		( 0 4 3 2 1 5 6 )
		( 0 2 4 1 3 6 5 )
		( 0 3 4 1 2 6 5 )

[Tue Nov 21 19:39:18 2017]	Reducing 126 states to ... 40. Finished at [Tue Nov 21 19:39:18 2017]
[Tue Nov 21 19:39:18 2017]	Computing symbolic transition matrix ... Done!
[Tue Nov 21 19:39:18 2017]	Well, initial degree guess is 40, like the of states.
[Tue Nov 21 19:39:42 2017]	Solution found with degree 40. Saving to file '34765556784.txt' and '34765556784.sage' 
