[Thu Nov 16 17:24:12 2017]	Graph Id=406338584 of order 6

	Automorphism Group elements:
		( 0 1 3 2 4 5 )
		( 0 2 1 3 4 5 )
		( 0 1 2 3 5 4 )
		( 0 2 1 3 5 4 )
		( 0 2 3 1 4 5 )
		( 0 1 3 2 5 4 )
		( 0 3 1 2 4 5 )
		( 0 2 3 1 5 4 )
		( 0 3 1 2 5 4 )
		( 0 3 2 1 4 5 )
		( 0 3 2 1 5 4 )

[Thu Nov 16 17:24:12 2017]	Reducing 62 states to ... 22. Finished at [Thu Nov 16 17:24:12 2017]
[Thu Nov 16 17:24:12 2017]	Computing symbolic transition matrix ... Done!
[Thu Nov 16 17:24:12 2017]	Well, initial degree guess is 22, like the of states.
[Thu Nov 16 17:24:13 2017]	Solution found with degree 22. Saving to file '406338584.txt' and '406338584.sage' 
