[Wed Nov 22 14:21:57 2017]	Graph Id=52351221793 of order 7

	Automorphism Group elements:
		( 0 1 3 2 4 5 6 )
		( 0 1 2 4 3 5 6 )
		( 1 0 2 3 4 5 6 )
		( 0 1 4 2 3 5 6 )
		( 0 1 3 4 2 5 6 )
		( 1 0 2 4 3 5 6 )
		( 1 0 3 2 4 5 6 )
		( 1 0 4 2 3 5 6 )
		( 1 0 3 4 2 5 6 )
		( 0 1 4 3 2 5 6 )
		( 1 0 4 3 2 5 6 )

[Wed Nov 22 14:21:57 2017]	Reducing 126 states to ... 46. Finished at [Wed Nov 22 14:21:57 2017]
[Wed Nov 22 14:21:57 2017]	Computing symbolic transition matrix ... Done!
[Wed Nov 22 14:21:57 2017]	Well, initial degree guess is 46, like the of states.
[Wed Nov 22 14:23:12 2017]	Solution found with degree 46. Saving to file '52351221793.txt' and '52351221793.sage' 
