[Thu Nov 23 02:13:38 2017]	Graph Id=52351754248 of order 7

	Automorphism Group elements:
		( 0 1 3 2 4 5 6 )
		( 0 1 2 3 4 6 5 )
		( 0 1 3 2 4 6 5 )

[Thu Nov 23 02:13:38 2017]	Reducing 126 states to ... 70. Finished at [Thu Nov 23 02:13:38 2017]
[Thu Nov 23 02:13:38 2017]	Computing symbolic transition matrix ... Done!
[Thu Nov 23 02:13:38 2017]	Well, initial degree guess is 70, like the of states.
[Thu Nov 23 02:26:27 2017]	Solution found with degree 70. Saving to file '52351754248.txt' and '52351754248.sage' 
