[Thu Nov 23 01:23:39 2017]	Graph Id=52486496304 of order 7

	Automorphism Group elements:
		( 0 1 3 2 4 5 6 )
		( 0 1 2 3 4 6 5 )
		( 1 0 2 3 4 5 6 )
		( 1 0 3 2 4 5 6 )
		( 0 1 3 2 4 6 5 )
		( 1 0 2 3 4 6 5 )
		( 1 0 3 2 4 6 5 )

[Thu Nov 23 01:23:39 2017]	Reducing 126 states to ... 52. Finished at [Thu Nov 23 01:23:39 2017]
[Thu Nov 23 01:23:39 2017]	Computing symbolic transition matrix ... Done!
[Thu Nov 23 01:23:39 2017]	Well, initial degree guess is 52, like the of states.
[Thu Nov 23 01:27:02 2017]	Solution found with degree 52. Saving to file '52486496304.txt' and '52486496304.sage' 
