[Fri Nov 17 02:16:00 2017]	Graph Id=946892848 of order 7

	Automorphism Group elements:
		( 0 1 3 2 4 5 6 )
		( 0 1 2 3 4 6 5 )
		( 0 2 1 3 4 5 6 )
		( 0 2 3 1 4 5 6 )
		( 0 3 1 2 4 5 6 )
		( 0 2 1 3 4 6 5 )
		( 0 1 3 2 4 6 5 )
		( 0 2 3 1 4 6 5 )
		( 0 3 1 2 4 6 5 )
		( 0 3 2 1 4 5 6 )
		( 0 3 2 1 4 6 5 )

[Fri Nov 17 02:16:00 2017]	Reducing 126 states to ... 46. Finished at [Fri Nov 17 02:16:00 2017]
[Fri Nov 17 02:16:00 2017]	Computing symbolic transition matrix ... Done!
[Fri Nov 17 02:16:01 2017]	Well, initial degree guess is 46, like the of states.
[Fri Nov 17 02:17:16 2017]	Reducing degree by 1
[Fri Nov 17 02:18:25 2017]	Reducing degree by 1
[Fri Nov 17 02:19:28 2017]	Solution found with degree 44. Saving to file '946892848.txt' and '946892848.sage' 
