1	0.099999999999999964
1.1000000000000001	0.14861644452300843
1.2	0.19999677344938166
1.3	0.25037064526082775
1.3999999999999999	0.29758995072419558
1.5	0.34078635266715362
1.6000000000000001	0.37984611923587869
1.7	0.41501801318694626
1.8	0.44668688190307237
1.8999999999999999	0.47526122886941408
2	0.50112436425935158
2.1000000000000001	0.52461720236804554
2.2000000000000002	0.54603550112609411
2.2999999999999998	0.56563303406135257
2.3999999999999999	0.58362673077436611
2.5	0.60020205184962228
2.6000000000000001	0.6155179127251722
2.7000000000000002	0.62971094471242084
2.7999999999999998	0.6428990834054622
2.8999999999999999	0.65518455178387058
3	0.66665632683877818
3.1000000000000001	0.67739217686540498
3.2000000000000002	0.68746034639039422
3.2999999999999998	0.69692095350627459
3.3999999999999999	0.70582715281299058
3.5	0.71422610713181711
3.6000000000000001	0.72215980282307779
3.7000000000000002	0.72966573676984825
3.7999999999999998	0.73677749765396616
3.8999999999999999	0.74352525980841966
4	0.7499362044672131
4.25	0.76464544265103096
4.5	0.77772196000917948
4.75	0.78942293291119681
5	0.79995431124333338
5.25	0.80948294429678991
5.5	0.81814542469351514
5.75	0.8260546398648051
6	0.83330469442400068
6.25	0.83997465650871272
6.5	0.84613144288958286
6.75	0.85183206502224174
7	0.85712539512564834
7.25	0.86205356771693575
7.5	0.86665310139337015
7.75	0.87095580385868199
8	0.87498950749707949
8.25	0.8787786713661484
8.5	0.88234487706224807
8.75	0.88570723965173725
9	0.88888275016146656
9.25	0.89188656256225407
9.5	0.8947322354605145
9.75	0.89743193662065901
10	0.89999661681835774
