[Tue Feb 13 15:03:17 2018]	Graph of order 8

[Tue Feb 13 15:03:17 2018]	Reducing 254 non-trivial states to ... 61. Finished at [Tue Feb 13 15:03:17 2018]
[Tue Feb 13 15:03:17 2018]	Computing symbolic transition matrix ... Done!
[Tue Feb 13 15:03:17 2018]	Well, initial degree guess is 61, like the of states.
[Tue Feb 13 15:08:16 2018]	Reducing degree by 1
[Tue Feb 13 15:12:52 2018]	Reducing degree by 1
[Tue Feb 13 15:17:04 2018]	Solution found with degree 59. Saving to file '8.txt' and '8.sage' 
